#
# A fatal error has been detected by the Java Runtime Environment:
#
#  SIGSEGV (0xb) at pc=0x0000000115143623, pid=51599, tid=775
#
# JRE version: Java(TM) SE Runtime Environment (8.0_91-b14) (build 1.8.0_91-b14)
# Java VM: Java HotSpot(TM) 64-Bit Server VM (25.91-b14 mixed mode bsd-amd64 compressed oops)
# Problematic frame:
# C  [libglass.dylib+0x23623]  -[GlassViewDelegate getAccessible]+0xb3
#
# Failed to write core dump. Core dumps have been disabled. To enable core dumping, try "ulimit -c unlimited" before starting Java again
#
# If you would like to submit a bug report, please visit:
#   http://bugreport.java.com/bugreport/crash.jsp
#

---------------  T H R E A D  ---------------

Current thread is native thread

siginfo: si_signo: 11 (SIGSEGV), si_code: 1 (SEGV_MAPERR), si_addr: 0x0000000000000000

Registers:
RAX=0x0000000000000307, RBX=0x0000000000000000, RCX=0x0000000000000000, RDX=0x00000000006e1000
RSP=0x00007fff59001820, RBP=0x00007fff59001c50, RSI=0x00007f80dd000000, RDI=0x0000000106c2fa00
R8 =0x0000000000000000, R9 =0x0000000000008004, R10=0x0000000000000000, R11=0x0000000000000800
R12=0x00007fffec48e070, R13=0x0000000115169550, R14=0x00007f80d9d73eb0, R15=0x00007f80dd40a0b0
RIP=0x0000000115143623, EFLAGS=0x0000000000010206, ERR=0x0000000000000004
  TRAPNO=0x000000000000000e

Top of Stack: (sp=0x00007fff59001820)
0x00007fff59001820:   00000001151435e6 000000011513ec44
0x00007fff59001830:   00007fffccb85214 00007fffcc3d406f
0x00007fff59001840:   00007fffcc92d051 00007fffcc3d293b
0x00007fff59001850:   00007fffcc74ad78 00007fffcc77867f
0x00007fff59001860:   00007fffcc750ac9 00007fffcc74e4d0
0x00007fff59001870:   00007fffcd43dfff 00007fffcd447cc1
0x00007fff59001880:   00007fffcd4214eb 00007fffce6c91f9
0x00007fff59001890:   00007fffce6c9171 00007fffce6c10c5
0x00007fff590018a0:   00007fffce6c0514 0000000106bff463
0x00007fff590018b0:   0000000106bfb1ac 0000000106c014c0
0x00007fff590018c0:   0000000106bfaa04 0000000000000006
0x00007fff590018d0:   000001a300000014 000001a4000186a7
0x00007fff590018e0:   00007fff59001a90 00007fff59002bcc
0x00007fff590018f0:   636f636f00000001 0000000000002d61
0x00007fff59001900:   00007fff59002be4 000001f60000005a
0x00007fff59001910:   00000000000d1f70 00007fffcd449845
0x00007fff59001920:   00007fff590019c0 0000000000000006
0x00007fff59001930:   0000000106c1c600 0000000000000030
0x00007fff59001940:   00007fff590019e4 0000000000000003
0x00007fff59001950:   00000000000001f6 00007fffe38b1867
0x00007fff59001960:   000001a300000000 ff80000000001006
0x00007fff59001970:   00007fff5900ffff 0000000000000000
0x00007fff59001980:   0000000000000030 00007fffe8f9fc30
0x00007fff59001990:   00007fffec4a1000 0000000000000030
0x00007fff590019a0:   00007fffe8f9d018 0000000000000007
0x00007fff590019b0:   0000000000000030 00007fffe8f9fc30
0x00007fff590019c0:   00007f80d34ab280 0000000000000000
0x00007fff590019d0:   00007fff59001a30 00007fffce63c64e
0x00007fff590019e0:   00002d6100000000 01000000e8e66b01
0x00007fff590019f0:   00007fffe8e6ef18 0000000000000007
0x00007fff59001a00:   0000000000000000 0000000000000000
0x00007fff59001a10:   00007fffe8f9fc01 00007fffe8f9fc30 

Instructions: (pc=0x0000000115143623)
0x0000000115143603:   e8 80 85 00 00 49 83 c7 08 ff cb 75 f0 4c 89 e7
0x0000000115143613:   e8 e6 84 00 00 49 8b 5d 00 4c 8b 25 0d 9b 01 00
0x0000000115143623:   48 8b 0b 48 8b 05 c3 2e 02 00 49 8b 34 06 48 8d
0x0000000115143633:   05 28 60 02 00 48 8b 10 31 c0 48 89 df ff 91 a0 

Register to memory mapping:

RAX=0x0000000000000307 is an unknown value
RBX=0x0000000000000000 is an unknown value
RCX=0x0000000000000000 is an unknown value
RDX=0x00000000006e1000 is an unknown value
RSP=0x00007fff59001820 is an unknown value
RBP=0x00007fff59001c50 is an unknown value
RSI=0x00007f80dd000000 is an unknown value
RDI=0x0000000106c2fa00 is an unknown value
R8 =0x0000000000000000 is an unknown value
R9 =0x0000000000008004 is an unknown value
R10=0x0000000000000000 is an unknown value
R11=0x0000000000000800 is an unknown value
R12=0x00007fffec48e070: __stack_chk_guard+0 in /usr/lib/system/libsystem_c.dylib at 0x00007fffe37c0000
R13=0x0000000115169550: jEnv+0 in /Library/Java/JavaVirtualMachines/jdk1.8.0_91.jdk/Contents/Home/jre/lib/libglass.dylib at 0x0000000115120000
R14=0x00007f80d9d73eb0 is an unknown value
R15=0x00007f80dd40a0b0 is an unknown value


Stack: [0x00007fff58807000,0x00007fff59007000],  sp=0x00007fff59001820,  free space=8170k
Native frames: (J=compiled Java code, j=interpreted, Vv=VM code, C=native code)
C  [libglass.dylib+0x23623]  -[GlassViewDelegate getAccessible]+0xb3
C  [libglass.dylib+0x1ec44]  -[GlassView3D accessibilityFocusedUIElement]+0x24
C  [AppKit+0x884214]  -[NSWindow(NSWindowAccessibility) accessibilityFocusedUIElement]+0x7c
C  [AppKit+0xd306f]  NSAccessibilityGetObjectForAttributeUsingLegacyAPI+0x17f
C  [AppKit+0x62c051]  NSAccessibilityPerformEntryPointObject+0x13
C  [AppKit+0xd193b]  _NSAccessibilityEntryPointValueForAttribute+0xbc
C  [AppKit+0x449d78]  -[NSObject(NSAccessibilityInternal) _accessibilityValueForAttribute:clientError:]+0x10a
C  [AppKit+0x47767f]  -[NSApplication(NSApplicationAccessibility) _accessibilityValueForAttribute:clientError:]+0x32
C  [AppKit+0x44fac9]  CopyAppKitUIElementAttributeValueNoCatch+0x5a
C  [AppKit+0x44d4d0]  CopyAttributeValue+0x15b
C  [HIServices+0x22fff]  _AXXMIGCopyAttributeValue+0x124
C  [HIServices+0x2ccc1]  _XCopyAttributeValue+0x1c3
C  [HIServices+0x64eb]  mshMIGPerform+0xdb
C  [CoreFoundation+0x901f9]  __CFRUNLOOP_IS_CALLING_OUT_TO_A_SOURCE1_PERFORM_FUNCTION__+0x29
C  [CoreFoundation+0x90171]  __CFRunLoopDoSource1+0x1d1
C  [CoreFoundation+0x880c5]  __CFRunLoopRun+0x955
C  [CoreFoundation+0x87514]  CFRunLoopRunSpecific+0x1a4
C  [java+0x6463]  CreateExecutionEnvironment+0x367
C  [java+0x21ac]  JLI_Launch+0x7a0
C  [java+0x84c0]  main+0x65
C  [java+0x1a04]  start+0x34


---------------  P R O C E S S  ---------------

VM state:at safepoint (normal execution)

VM Mutex/Monitor currently owned by a thread:  ([mutex/lock_event])
[0x00007f80d3410f50] Threads_lock - owner thread: 0x00007f80d4055000
[0x00007f80d3411450] Heap_lock - owner thread: 0x00007f80dc87e000

Heap:
 PSYoungGen      total 76288K, used 51637K [0x000000076ab00000, 0x0000000770000000, 0x00000007c0000000)
  eden space 65536K, 78% used [0x000000076ab00000,0x000000076dd6d598,0x000000076eb00000)
  from space 10752K, 0% used [0x000000076eb00000,0x000000076eb00000,0x000000076f580000)
  to   space 10752K, 0% used [0x000000076f580000,0x000000076f580000,0x0000000770000000)
 ParOldGen       total 84480K, used 13285K [0x00000006c0000000, 0x00000006c5280000, 0x000000076ab00000)
  object space 84480K, 15% used [0x00000006c0000000,0x00000006c0cf9590,0x00000006c5280000)
 Metaspace       used 24012K, capacity 25592K, committed 25728K, reserved 1071104K
  class space    used 3385K, capacity 3698K, committed 3712K, reserved 1048576K

Card table byte_map: [0x0000000109154000,0x0000000109955000] byte_map_base: 0x0000000105b54000

Marking Bits: (ParMarkBitMap*) 0x00000001086e6eb0
 Begin Bits: [0x0000000109eab000, 0x000000010deab000)
 End Bits:   [0x000000010deab000, 0x0000000111eab000)

Polling page: 0x0000000106ceb000

CodeCache: size=245760Kb used=14411Kb max_used=14411Kb free=231348Kb
 bounds [0x00000001155ff000, 0x000000011641f000, 0x00000001245ff000]
 total_blobs=5185 nmethods=4454 adapters=643
 compilation: enabled

Compilation events (10 events):
Event: 342.418 Thread 0x00007f80d402c000 4479       3       javafx.scene.shape.Rectangle::impl_computeGeomBounds (132 bytes)
Event: 342.421 Thread 0x00007f80d402c000 nmethod 4479 0x00000001164162d0 code [0x0000000116416680, 0x0000000116418e18]
Event: 342.421 Thread 0x00007f80d402c000 4480       3       javafx.scene.shape.Shape::computeBounds (382 bytes)
Event: 342.422 Thread 0x00007f80d402c000 nmethod 4480 0x0000000116413150 code [0x0000000116413440, 0x0000000116414598]
Event: 342.422 Thread 0x00007f80d402c000 4481       3       java.util.concurrent.ThreadPoolExecutor$Worker::unlock (7 bytes)
Event: 342.422 Thread 0x00007f80d402c000 nmethod 4481 0x0000000116419e50 code [0x0000000116419fe0, 0x000000011641a508]
Event: 342.422 Thread 0x00007f80d402c000 4482       3       java.util.concurrent.ThreadPoolExecutor::runStateAtLeast (11 bytes)
Event: 342.422 Thread 0x00007f80d402c000 nmethod 4482 0x0000000116412dd0 code [0x0000000116412f40, 0x00000001164130d0]
Event: 342.422 Thread 0x00007f80d402c000 4483       3       java.util.concurrent.ThreadPoolExecutor$Worker::tryAcquire (20 bytes)
Event: 342.422 Thread 0x00007f80d402c000 nmethod 4483 0x000000011641a6d0 code [0x000000011641a840, 0x000000011641abf0]

GC Heap History (4 events):
Event: 4.739 GC heap before
{Heap before GC invocations=1 (full 0):
 PSYoungGen      total 76288K, used 64304K [0x000000076ab00000, 0x0000000770000000, 0x00000007c0000000)
  eden space 65536K, 98% used [0x000000076ab00000,0x000000076e9cc160,0x000000076eb00000)
  from space 10752K, 0% used [0x000000076f580000,0x000000076f580000,0x0000000770000000)
  to   space 10752K, 0% used [0x000000076eb00000,0x000000076eb00000,0x000000076f580000)
 ParOldGen       total 175104K, used 0K [0x00000006c0000000, 0x00000006cab00000, 0x000000076ab00000)
  object space 175104K, 0% used [0x00000006c0000000,0x00000006c0000000,0x00000006cab00000)
 Metaspace       used 20348K, capacity 21172K, committed 21296K, reserved 1067008K
  class space    used 2871K, capacity 3114K, committed 3200K, reserved 1048576K
Event: 4.751 GC heap after
Heap after GC invocations=1 (full 0):
 PSYoungGen      total 76288K, used 10744K [0x000000076ab00000, 0x0000000770000000, 0x00000007c0000000)
  eden space 65536K, 0% used [0x000000076ab00000,0x000000076ab00000,0x000000076eb00000)
  from space 10752K, 99% used [0x000000076eb00000,0x000000076f57e0e0,0x000000076f580000)
  to   space 10752K, 0% used [0x000000076f580000,0x000000076f580000,0x0000000770000000)
 ParOldGen       total 175104K, used 5206K [0x00000006c0000000, 0x00000006cab00000, 0x000000076ab00000)
  object space 175104K, 2% used [0x00000006c0000000,0x00000006c05159a8,0x00000006cab00000)
 Metaspace       used 20348K, capacity 21172K, committed 21296K, reserved 1067008K
  class space    used 2871K, capacity 3114K, committed 3200K, reserved 1048576K
}
Event: 4.751 GC heap before
{Heap before GC invocations=2 (full 1):
 PSYoungGen      total 76288K, used 10744K [0x000000076ab00000, 0x0000000770000000, 0x00000007c0000000)
  eden space 65536K, 0% used [0x000000076ab00000,0x000000076ab00000,0x000000076eb00000)
  from space 10752K, 99% used [0x000000076eb00000,0x000000076f57e0e0,0x000000076f580000)
  to   space 10752K, 0% used [0x000000076f580000,0x000000076f580000,0x0000000770000000)
 ParOldGen       total 175104K, used 5206K [0x00000006c0000000, 0x00000006cab00000, 0x000000076ab00000)
  object space 175104K, 2% used [0x00000006c0000000,0x00000006c05159a8,0x00000006cab00000)
 Metaspace       used 20348K, capacity 21172K, committed 21296K, reserved 1067008K
  class space    used 2871K, capacity 3114K, committed 3200K, reserved 1048576K
Event: 4.783 GC heap after
Heap after GC invocations=2 (full 1):
 PSYoungGen      total 76288K, used 0K [0x000000076ab00000, 0x0000000770000000, 0x00000007c0000000)
  eden space 65536K, 0% used [0x000000076ab00000,0x000000076ab00000,0x000000076eb00000)
  from space 10752K, 0% used [0x000000076eb00000,0x000000076eb00000,0x000000076f580000)
  to   space 10752K, 0% used [0x000000076f580000,0x000000076f580000,0x0000000770000000)
 ParOldGen       total 84480K, used 13285K [0x00000006c0000000, 0x00000006c5280000, 0x000000076ab00000)
  object space 84480K, 15% used [0x00000006c0000000,0x00000006c0cf9590,0x00000006c5280000)
 Metaspace       used 20348K, capacity 21172K, committed 21296K, reserved 1067008K
  class space    used 2871K, capacity 3114K, committed 3200K, reserved 1048576K
}

Deoptimization events (10 events):
Event: 6.911 Thread 0x00007f80d491e800 Uncommon trap: reason=class_check action=maybe_recompile pc=0x0000000115d2dcc0 method=javafx.scene.CssStyleHelper.getStyle(Ljavafx/css/Styleable;Ljava/lang/String;Lcom/sun/javafx/css/StyleMap;Ljava/util/Set;)Lcom/sun/javafx/css/CascadingStyle; @ 26
Event: 6.928 Thread 0x00007f80d491e800 Uncommon trap: reason=bimorphic action=maybe_recompile pc=0x0000000115ec5c2c method=com.sun.javafx.collections.VetoableListDecorator.size()I @ 4
Event: 7.056 Thread 0x00007f80d491e800 Uncommon trap: reason=class_check action=maybe_recompile pc=0x0000000115f95a70 method=javafx.scene.Node.updateLocalToParentTransform()V @ 368
Event: 8.557 Thread 0x00007f80d491e800 Uncommon trap: reason=null_check action=make_not_entrant pc=0x000000011621cd8c method=javafx.scene.CssStyleHelper.getCachedFont(Ljavafx/css/Styleable;)Lcom/sun/javafx/css/CalculatedValue; @ 1
Event: 8.558 Thread 0x00007f80d491e800 Uncommon trap: reason=class_check action=maybe_recompile pc=0x0000000115adc0d4 method=java.io.FilterInputStream.read()I @ 4
Event: 8.558 Thread 0x00007f80d491e800 Uncommon trap: reason=class_check action=maybe_recompile pc=0x0000000115adc0d4 method=java.io.FilterInputStream.read()I @ 4
Event: 8.559 Thread 0x00007f80d491e800 Uncommon trap: reason=class_check action=maybe_recompile pc=0x0000000115adc0d4 method=java.io.FilterInputStream.read()I @ 4
Event: 8.559 Thread 0x00007f80d491e800 Uncommon trap: reason=class_check action=maybe_recompile pc=0x0000000115adc0d4 method=java.io.FilterInputStream.read()I @ 4
Event: 10.113 Thread 0x00007f80d51c0000 Uncommon trap: reason=unstable_if action=reinterpret pc=0x0000000116092d00 method=com.sun.prism.es2.GLContext.updateBoundTexture(I)V @ 5
Event: 340.503 Thread 0x00007f80d491e800 Uncommon trap: reason=unstable_if action=reinterpret pc=0x00000001163b73f0 method=com.sun.glass.ui.mac.MacTouchInputSupport.notifyNextTouchEvent(Lcom/sun/glass/ui/View;IJIIII)V @ 121

Internal exceptions (10 events):
Event: 4.788 Thread 0x00007f80d5003800 Exception <a 'java/net/SocketException': Socket closed> (0x000000076ac4dd30) thrown at [/Users/java_re/workspace/8-2-build-macosx-x86_64/jdk8u91/6644/hotspot/src/share/vm/prims/jni.cpp, line 735]
Event: 5.387 Thread 0x00007f80d491e800 Implicit null exception at 0x0000000115f9f68d to 0x0000000115fa314d
Event: 6.883 Thread 0x00007f80d491e800 Exception <a 'java/lang/ArrayIndexOutOfBoundsException'> (0x000000076c3ed4b0) thrown at [/Users/java_re/workspace/8-2-build-macosx-x86_64/jdk8u91/6644/hotspot/src/share/vm/runtime/sharedRuntime.cpp, line 605]
Event: 6.893 Thread 0x00007f80d491e800 Exception <a 'java/lang/ArrayIndexOutOfBoundsException'> (0x000000076c5422f0) thrown at [/Users/java_re/workspace/8-2-build-macosx-x86_64/jdk8u91/6644/hotspot/src/share/vm/runtime/sharedRuntime.cpp, line 605]
Event: 6.893 Thread 0x00007f80d491e800 Exception <a 'java/lang/ArrayIndexOutOfBoundsException'> (0x000000076c5432f0) thrown at [/Users/java_re/workspace/8-2-build-macosx-x86_64/jdk8u91/6644/hotspot/src/share/vm/runtime/sharedRuntime.cpp, line 605]
Event: 6.893 Thread 0x00007f80d491e800 Exception <a 'java/lang/ArrayIndexOutOfBoundsException'> (0x000000076c544b60) thrown at [/Users/java_re/workspace/8-2-build-macosx-x86_64/jdk8u91/6644/hotspot/src/share/vm/runtime/sharedRuntime.cpp, line 605]
Event: 6.900 Thread 0x00007f80d491e800 Implicit null exception at 0x0000000116015332 to 0x000000011601c8d1
Event: 8.557 Thread 0x00007f80d491e800 Implicit null exception at 0x00000001162156d4 to 0x000000011621cd19
Event: 10.103 Thread 0x00007f80d491e800 Exception <a 'java/lang/NullPointerException'> (0x000000076d2546d8) thrown at [/Users/java_re/workspace/8-2-build-macosx-x86_64/jdk8u91/6644/hotspot/src/share/vm/interpreter/linkResolver.cpp, line 1178]
Event: 10.103 Thread 0x00007f80d491e800 Exception <a 'java/lang/NullPointerException'> (0x000000076d2546d8) thrown at [/Users/java_re/workspace/8-2-build-macosx-x86_64/jdk8u91/6644/hotspot/src/share/vm/prims/jvm.cpp, line 1390]

Events (10 events):
Event: 342.422 Thread 0x00007f80d51c0000 Thread exited: 0x00007f80d51c0000
Event: 342.422 Thread 0x00007f80d702c000 Thread exited: 0x00007f80d702c000
Event: 342.422 Thread 0x00007f80d4801800 Thread exited: 0x00007f80d4801800
Event: 342.422 Thread 0x00007f80dc87e000 Thread added: 0x00007f80dc87e000
Event: 342.423 Thread 0x00007f80d491e800 Thread exited: 0x00007f80d491e800
Event: 342.423 loading class java/util/IdentityHashMap$KeyIterator
Event: 342.423 loading class java/util/IdentityHashMap$IdentityHashMapIterator
Event: 342.423 loading class java/util/IdentityHashMap$IdentityHashMapIterator done
Event: 342.423 loading class java/util/IdentityHashMap$KeyIterator done
Event: 342.423 Thread 0x00007f80dc87e000 Thread exited: 0x00007f80dc87e000


Dynamic libraries:
0x00000000594ab000 	/System/Library/Frameworks/Cocoa.framework/Versions/A/Cocoa
0x00000000594ab000 	/System/Library/Frameworks/Security.framework/Versions/A/Security
0x00000000594ab000 	/System/Library/Frameworks/ApplicationServices.framework/Versions/A/ApplicationServices
0x00000000594ab000 	/usr/lib/libz.1.dylib
0x00000000594ab000 	/usr/lib/libSystem.B.dylib
0x00000000594ab000 	/usr/lib/libobjc.A.dylib
0x00000000594ab000 	/System/Library/Frameworks/CoreFoundation.framework/Versions/A/CoreFoundation
0x00000000594ab000 	/System/Library/Frameworks/Foundation.framework/Versions/C/Foundation
0x00000000594ab000 	/System/Library/Frameworks/AppKit.framework/Versions/C/AppKit
0x00000000594ab000 	/System/Library/Frameworks/CoreData.framework/Versions/A/CoreData
0x00000000594ab000 	/System/Library/PrivateFrameworks/RemoteViewServices.framework/Versions/A/RemoteViewServices
0x00000000594ab000 	/System/Library/PrivateFrameworks/UIFoundation.framework/Versions/A/UIFoundation
0x00000000594ab000 	/usr/lib/libenergytrace.dylib
0x00000000594ab000 	/System/Library/PrivateFrameworks/SkyLight.framework/Versions/A/SkyLight
0x00000000594ab000 	/System/Library/Frameworks/CoreGraphics.framework/Versions/A/CoreGraphics
0x00000000594ab000 	/usr/lib/libScreenReader.dylib
0x00000000594ab000 	/System/Library/Frameworks/Accelerate.framework/Versions/A/Accelerate
0x00000000594ab000 	/System/Library/Frameworks/IOSurface.framework/Versions/A/IOSurface
0x00000000594ab000 	/System/Library/Frameworks/AudioToolbox.framework/Versions/A/AudioToolbox
0x00000000594ab000 	/System/Library/Frameworks/AudioUnit.framework/Versions/A/AudioUnit
0x00000000594ab000 	/System/Library/PrivateFrameworks/DataDetectorsCore.framework/Versions/A/DataDetectorsCore
0x00000000594ab000 	/System/Library/PrivateFrameworks/DesktopServicesPriv.framework/Versions/A/DesktopServicesPriv
0x00000000594ab000 	/System/Library/Frameworks/Carbon.framework/Versions/A/Frameworks/HIToolbox.framework/Versions/A/HIToolbox
0x00000000594ab000 	/usr/lib/libicucore.A.dylib
0x00000000594ab000 	/System/Library/Frameworks/QuartzCore.framework/Versions/A/QuartzCore
0x00000000594ab000 	/System/Library/Frameworks/Carbon.framework/Versions/A/Frameworks/SpeechRecognition.framework/Versions/A/SpeechRecognition
0x00000000594ab000 	/usr/lib/libauto.dylib
0x00000000594ab000 	/usr/lib/libxml2.2.dylib
0x00000000594ab000 	/System/Library/PrivateFrameworks/CoreUI.framework/Versions/A/CoreUI
0x00000000594ab000 	/System/Library/Frameworks/CoreAudio.framework/Versions/A/CoreAudio
0x00000000594ab000 	/System/Library/Frameworks/DiskArbitration.framework/Versions/A/DiskArbitration
0x00000000594ab000 	/usr/lib/liblangid.dylib
0x00000000594ab000 	/System/Library/PrivateFrameworks/MultitouchSupport.framework/Versions/A/MultitouchSupport
0x00000000594ab000 	/System/Library/Frameworks/IOKit.framework/Versions/A/IOKit
0x00000000594ab000 	/usr/lib/libDiagnosticMessagesClient.dylib
0x00000000594ab000 	/System/Library/Frameworks/CoreServices.framework/Versions/A/CoreServices
0x00000000594ab000 	/System/Library/PrivateFrameworks/PerformanceAnalysis.framework/Versions/A/PerformanceAnalysis
0x00000000594ab000 	/System/Library/PrivateFrameworks/GenerationalStorage.framework/Versions/A/GenerationalStorage
0x00000000594ab000 	/System/Library/Frameworks/OpenGL.framework/Versions/A/OpenGL
0x00000000594ab000 	/System/Library/Frameworks/CoreImage.framework/Versions/A/CoreImage
0x00000000594ab000 	/System/Library/Frameworks/CoreText.framework/Versions/A/CoreText
0x00000000594ab000 	/System/Library/Frameworks/ImageIO.framework/Versions/A/ImageIO
0x00000000594ab000 	/System/Library/PrivateFrameworks/Backup.framework/Versions/A/Backup
0x00000000594ab000 	/usr/lib/libarchive.2.dylib
0x00000000594ab000 	/System/Library/Frameworks/CFNetwork.framework/Versions/A/CFNetwork
0x00000000594ab000 	/System/Library/Frameworks/SystemConfiguration.framework/Versions/A/SystemConfiguration
0x00000000594ab000 	/usr/lib/libCRFSuite.dylib
0x00000000594ab000 	/usr/lib/libc++.1.dylib
0x00000000594ab000 	/usr/lib/libc++abi.dylib
0x00000000594ab000 	/usr/lib/system/libcache.dylib
0x00000000594ab000 	/usr/lib/system/libcommonCrypto.dylib
0x00000000594ab000 	/usr/lib/system/libcompiler_rt.dylib
0x00000000594ab000 	/usr/lib/system/libcopyfile.dylib
0x00000000594ab000 	/usr/lib/system/libcorecrypto.dylib
0x00000000594ab000 	/usr/lib/system/libdispatch.dylib
0x00000000594ab000 	/usr/lib/system/libdyld.dylib
0x00000000594ab000 	/usr/lib/system/libkeymgr.dylib
0x00000000594ab000 	/usr/lib/system/liblaunch.dylib
0x00000000594ab000 	/usr/lib/system/libmacho.dylib
0x00000000594ab000 	/usr/lib/system/libquarantine.dylib
0x00000000594ab000 	/usr/lib/system/libremovefile.dylib
0x00000000594ab000 	/usr/lib/system/libsystem_asl.dylib
0x00000000594ab000 	/usr/lib/system/libsystem_blocks.dylib
0x00000000594ab000 	/usr/lib/system/libsystem_c.dylib
0x00000000594ab000 	/usr/lib/system/libsystem_configuration.dylib
0x00000000594ab000 	/usr/lib/system/libsystem_coreservices.dylib
0x00000000594ab000 	/usr/lib/system/libsystem_coretls.dylib
0x00000000594ab000 	/usr/lib/system/libsystem_dnssd.dylib
0x00000000594ab000 	/usr/lib/system/libsystem_info.dylib
0x00000000594ab000 	/usr/lib/system/libsystem_kernel.dylib
0x00000000594ab000 	/usr/lib/system/libsystem_m.dylib
0x00000000594ab000 	/usr/lib/system/libsystem_malloc.dylib
0x00000000594ab000 	/usr/lib/system/libsystem_network.dylib
0x00000000594ab000 	/usr/lib/system/libsystem_networkextension.dylib
0x00000000594ab000 	/usr/lib/system/libsystem_notify.dylib
0x00000000594ab000 	/usr/lib/system/libsystem_platform.dylib
0x00000000594ab000 	/usr/lib/system/libsystem_pthread.dylib
0x00000000594ab000 	/usr/lib/system/libsystem_sandbox.dylib
0x00000000594ab000 	/usr/lib/system/libsystem_secinit.dylib
0x00000000594ab000 	/usr/lib/system/libsystem_symptoms.dylib
0x00000000594ab000 	/usr/lib/system/libsystem_trace.dylib
0x00000000594ab000 	/usr/lib/system/libunwind.dylib
0x00000000594ab000 	/usr/lib/system/libxpc.dylib
0x00000000594ab000 	/usr/lib/libbsm.0.dylib
0x00000000594ab000 	/usr/lib/system/libkxld.dylib
0x00000000594ab000 	/usr/lib/libcoretls.dylib
0x00000000594ab000 	/usr/lib/libcoretls_cfhelpers.dylib
0x00000000594ab000 	/usr/lib/libxar.1.dylib
0x00000000594ab000 	/usr/lib/libsqlite3.dylib
0x00000000594ab000 	/usr/lib/libpam.2.dylib
0x00000000594ab000 	/usr/lib/libOpenScriptingUtil.dylib
0x00000000594ab000 	/usr/lib/libbz2.1.0.dylib
0x00000000594ab000 	/usr/lib/liblzma.5.dylib
0x00000000594ab000 	/usr/lib/libnetwork.dylib
0x00000000594ab000 	/usr/lib/libpcap.A.dylib
0x00000000594ab000 	/System/Library/Frameworks/CoreServices.framework/Versions/A/Frameworks/FSEvents.framework/Versions/A/FSEvents
0x00000000594ab000 	/System/Library/Frameworks/CoreServices.framework/Versions/A/Frameworks/CarbonCore.framework/Versions/A/CarbonCore
0x00000000594ab000 	/System/Library/Frameworks/CoreServices.framework/Versions/A/Frameworks/Metadata.framework/Versions/A/Metadata
0x00000000594ab000 	/System/Library/Frameworks/CoreServices.framework/Versions/A/Frameworks/OSServices.framework/Versions/A/OSServices
0x00000000594ab000 	/System/Library/Frameworks/CoreServices.framework/Versions/A/Frameworks/SearchKit.framework/Versions/A/SearchKit
0x00000000594ab000 	/System/Library/Frameworks/CoreServices.framework/Versions/A/Frameworks/AE.framework/Versions/A/AE
0x00000000594ab000 	/System/Library/Frameworks/CoreServices.framework/Versions/A/Frameworks/LaunchServices.framework/Versions/A/LaunchServices
0x00000000594ab000 	/System/Library/Frameworks/CoreServices.framework/Versions/A/Frameworks/DictionaryServices.framework/Versions/A/DictionaryServices
0x00000000594ab000 	/System/Library/Frameworks/CoreServices.framework/Versions/A/Frameworks/SharedFileList.framework/Versions/A/SharedFileList
0x00000000594ab000 	/System/Library/Frameworks/NetFS.framework/Versions/A/NetFS
0x00000000594ab000 	/System/Library/PrivateFrameworks/NetAuth.framework/Versions/A/NetAuth
0x00000000594ab000 	/System/Library/PrivateFrameworks/login.framework/Versions/A/Frameworks/loginsupport.framework/Versions/A/loginsupport
0x00000000594ab000 	/System/Library/PrivateFrameworks/TCC.framework/Versions/A/TCC
0x00000000594ab000 	/usr/lib/libmecabra.dylib
0x00000000594ab000 	/System/Library/Frameworks/ApplicationServices.framework/Versions/A/Frameworks/ATS.framework/Versions/A/ATS
0x00000000594ab000 	/System/Library/Frameworks/ApplicationServices.framework/Versions/A/Frameworks/ColorSync.framework/Versions/A/ColorSync
0x00000000594ab000 	/System/Library/Frameworks/ApplicationServices.framework/Versions/A/Frameworks/HIServices.framework/Versions/A/HIServices
0x00000000594ab000 	/System/Library/Frameworks/ApplicationServices.framework/Versions/A/Frameworks/LangAnalysis.framework/Versions/A/LangAnalysis
0x00000000594ab000 	/System/Library/Frameworks/ApplicationServices.framework/Versions/A/Frameworks/PrintCore.framework/Versions/A/PrintCore
0x00000000594ab000 	/System/Library/Frameworks/ApplicationServices.framework/Versions/A/Frameworks/QD.framework/Versions/A/QD
0x00000000594ab000 	/System/Library/Frameworks/ApplicationServices.framework/Versions/A/Frameworks/SpeechSynthesis.framework/Versions/A/SpeechSynthesis
0x00000000594ab000 	/System/Library/Frameworks/Accelerate.framework/Versions/A/Frameworks/vImage.framework/Versions/A/vImage
0x00000000594ab000 	/System/Library/Frameworks/Accelerate.framework/Versions/A/Frameworks/vecLib.framework/Versions/A/vecLib
0x00000000594ab000 	/System/Library/Frameworks/Accelerate.framework/Versions/A/Frameworks/vecLib.framework/Versions/A/libvDSP.dylib
0x00000000594ab000 	/System/Library/Frameworks/Accelerate.framework/Versions/A/Frameworks/vecLib.framework/Versions/A/libBNNS.dylib
0x00000000594ab000 	/System/Library/Frameworks/Accelerate.framework/Versions/A/Frameworks/vecLib.framework/Versions/A/libQuadrature.dylib
0x00000000594ab000 	/System/Library/Frameworks/Accelerate.framework/Versions/A/Frameworks/vecLib.framework/Versions/A/libvMisc.dylib
0x00000000594ab000 	/System/Library/Frameworks/Accelerate.framework/Versions/A/Frameworks/vecLib.framework/Versions/A/libLAPACK.dylib
0x00000000594ab000 	/System/Library/Frameworks/Accelerate.framework/Versions/A/Frameworks/vecLib.framework/Versions/A/libBLAS.dylib
0x00000000594ab000 	/System/Library/Frameworks/Accelerate.framework/Versions/A/Frameworks/vecLib.framework/Versions/A/libLinearAlgebra.dylib
0x00000000594ab000 	/System/Library/Frameworks/Accelerate.framework/Versions/A/Frameworks/vecLib.framework/Versions/A/libSparseBLAS.dylib
0x00000000594ab000 	/System/Library/Frameworks/ApplicationServices.framework/Versions/A/Frameworks/ATS.framework/Versions/A/Resources/libFontParser.dylib
0x00000000594ab000 	/System/Library/Frameworks/ApplicationServices.framework/Versions/A/Frameworks/ATS.framework/Versions/A/Resources/libFontRegistry.dylib
0x00000000594ab000 	/System/Library/Frameworks/ImageIO.framework/Versions/A/Resources/libJPEG.dylib
0x00000000594ab000 	/System/Library/Frameworks/ImageIO.framework/Versions/A/Resources/libTIFF.dylib
0x00000000594ab000 	/System/Library/Frameworks/ImageIO.framework/Versions/A/Resources/libPng.dylib
0x00000000594ab000 	/System/Library/Frameworks/ImageIO.framework/Versions/A/Resources/libGIF.dylib
0x00000000594ab000 	/System/Library/Frameworks/ImageIO.framework/Versions/A/Resources/libJP2.dylib
0x00000000594ab000 	/System/Library/Frameworks/ImageIO.framework/Versions/A/Resources/libRadiance.dylib
0x00000000594ab000 	/usr/lib/libcompression.dylib
0x00000000594ab000 	/System/Library/PrivateFrameworks/AppleJPEG.framework/Versions/A/AppleJPEG
0x00000000594ab000 	/usr/lib/libcups.2.dylib
0x00000000594ab000 	/System/Library/Frameworks/Kerberos.framework/Versions/A/Kerberos
0x00000000594ab000 	/System/Library/Frameworks/GSS.framework/Versions/A/GSS
0x00000000594ab000 	/usr/lib/libresolv.9.dylib
0x00000000594ab000 	/usr/lib/libiconv.2.dylib
0x00000000594ab000 	/System/Library/PrivateFrameworks/Heimdal.framework/Versions/A/Heimdal
0x00000000594ab000 	/usr/lib/libheimdal-asn1.dylib
0x00000000594ab000 	/System/Library/Frameworks/OpenDirectory.framework/Versions/A/OpenDirectory
0x00000000594ab000 	/System/Library/PrivateFrameworks/CommonAuth.framework/Versions/A/CommonAuth
0x00000000594ab000 	/System/Library/Frameworks/OpenDirectory.framework/Versions/A/Frameworks/CFOpenDirectory.framework/Versions/A/CFOpenDirectory
0x00000000594ab000 	/System/Library/Frameworks/SecurityFoundation.framework/Versions/A/SecurityFoundation
0x00000000594ab000 	/System/Library/PrivateFrameworks/LanguageModeling.framework/Versions/A/LanguageModeling
0x00000000594ab000 	/usr/lib/libmarisa.dylib
0x00000000594ab000 	/usr/lib/libChineseTokenizer.dylib
0x00000000594ab000 	/usr/lib/libcmph.dylib
0x00000000594ab000 	/System/Library/PrivateFrameworks/CoreEmoji.framework/Versions/A/CoreEmoji
0x00000000594ab000 	/System/Library/Frameworks/ServiceManagement.framework/Versions/A/ServiceManagement
0x00000000594ab000 	/usr/lib/libxslt.1.dylib
0x00000000594ab000 	/System/Library/Frameworks/Carbon.framework/Versions/A/Frameworks/Ink.framework/Versions/A/Ink
0x00000000594ab000 	/System/Library/PrivateFrameworks/TextureIO.framework/Versions/A/TextureIO
0x00000000594ab000 	/System/Library/Frameworks/Metal.framework/Versions/A/Metal
0x00000000594ab000 	/usr/lib/libate.dylib
0x00000000594ab000 	/System/Library/PrivateFrameworks/GPUCompiler.framework/libmetal_timestamp.dylib
0x00000000594ab000 	/System/Library/Frameworks/OpenGL.framework/Versions/A/Libraries/libCoreFSCache.dylib
0x00000000594ab000 	/System/Library/PrivateFrameworks/IOAccelerator.framework/Versions/A/IOAccelerator
0x00000000594ab000 	/System/Library/Frameworks/CoreVideo.framework/Versions/A/CoreVideo
0x00000000594ab000 	/usr/lib/libFosl_dynamic.dylib
0x00000000594ab000 	/System/Library/PrivateFrameworks/MetalPerformanceShaders.framework/Versions/A/MetalPerformanceShaders
0x00000000594ab000 	/System/Library/PrivateFrameworks/FaceCore.framework/Versions/A/FaceCore
0x00000000594ab000 	/System/Library/Frameworks/OpenCL.framework/Versions/A/OpenCL
0x00000000594ab000 	/System/Library/Frameworks/OpenGL.framework/Versions/A/Libraries/libGLU.dylib
0x00000000594ab000 	/System/Library/Frameworks/OpenGL.framework/Versions/A/Libraries/libGFXShared.dylib
0x00000000594ab000 	/System/Library/Frameworks/OpenGL.framework/Versions/A/Libraries/libGL.dylib
0x00000000594ab000 	/System/Library/Frameworks/OpenGL.framework/Versions/A/Libraries/libGLImage.dylib
0x00000000594ab000 	/System/Library/Frameworks/OpenGL.framework/Versions/A/Libraries/libCVMSPluginSupport.dylib
0x00000000594ab000 	/System/Library/Frameworks/OpenGL.framework/Versions/A/Libraries/libCoreVMClient.dylib
0x00000000594ab000 	/System/Library/PrivateFrameworks/CrashReporterSupport.framework/Versions/A/CrashReporterSupport
0x00000000594ab000 	/System/Library/PrivateFrameworks/Sharing.framework/Versions/A/Sharing
0x00000000594ab000 	/System/Library/PrivateFrameworks/IconServices.framework/Versions/A/IconServices
0x00000000594ab000 	/System/Library/PrivateFrameworks/ProtocolBuffer.framework/Versions/A/ProtocolBuffer
0x00000000594ab000 	/System/Library/PrivateFrameworks/Apple80211.framework/Versions/A/Apple80211
0x00000000594ab000 	/System/Library/Frameworks/CoreWLAN.framework/Versions/A/CoreWLAN
0x00000000594ab000 	/System/Library/PrivateFrameworks/CoreUtils.framework/Versions/A/CoreUtils
0x00000000594ab000 	/System/Library/Frameworks/IOBluetooth.framework/Versions/A/IOBluetooth
0x00000000594ab000 	/System/Library/PrivateFrameworks/CoreWiFi.framework/Versions/A/CoreWiFi
0x00000000594ab000 	/System/Library/Frameworks/CoreBluetooth.framework/Versions/A/CoreBluetooth
0x00000000594ab000 	/System/Library/Frameworks/CoreDisplay.framework/Versions/A/CoreDisplay
0x00000000594ab000 	/System/Library/PrivateFrameworks/IOPresentment.framework/Versions/A/IOPresentment
0x00000000594ab000 	/System/Library/PrivateFrameworks/DebugSymbols.framework/Versions/A/DebugSymbols
0x00000000594ab000 	/System/Library/PrivateFrameworks/CoreSymbolication.framework/Versions/A/CoreSymbolication
0x00000000594ab000 	/System/Library/PrivateFrameworks/Symbolication.framework/Versions/A/Symbolication
0x00000000594ab000 	/System/Library/PrivateFrameworks/AppleFSCompression.framework/Versions/A/AppleFSCompression
0x00000000594ab000 	/System/Library/PrivateFrameworks/SpeechRecognitionCore.framework/Versions/A/SpeechRecognitionCore
0x00000000594ab000 	/System/Library/PrivateFrameworks/ChunkingLibrary.framework/Versions/A/ChunkingLibrary
0x0000000107e00000 	/Library/Java/JavaVirtualMachines/jdk1.8.0_91.jdk/Contents/Home/jre/lib/server/libjvm.dylib
0x00000000594ab000 	/usr/lib/libstdc++.6.dylib
0x0000000106ca8000 	/Library/Java/JavaVirtualMachines/jdk1.8.0_91.jdk/Contents/Home/jre/lib/libverify.dylib
0x0000000106cb6000 	/Library/Java/JavaVirtualMachines/jdk1.8.0_91.jdk/Contents/Home/jre/lib/libjava.dylib
0x0000000106cf5000 	/Library/Java/JavaVirtualMachines/jdk1.8.0_91.jdk/Contents/Home/jre/lib/libzip.dylib
0x0000000114d25000 	/System/Library/Frameworks/JavaVM.framework/Frameworks/JavaRuntimeSupport.framework/JavaRuntimeSupport
0x0000000114d3f000 	/System/Library/Frameworks/JavaVM.framework/Versions/A/Frameworks/JavaNativeFoundation.framework/Versions/A/JavaNativeFoundation
0x0000000114d54000 	/System/Library/Frameworks/JavaVM.framework/Versions/A/JavaVM
0x00000000594ab000 	/System/Library/Frameworks/Carbon.framework/Versions/A/Carbon
0x0000000114d61000 	/System/Library/PrivateFrameworks/JavaLaunching.framework/Versions/A/JavaLaunching
0x00000000594ab000 	/System/Library/Frameworks/Carbon.framework/Versions/A/Frameworks/CommonPanels.framework/Versions/A/CommonPanels
0x00000000594ab000 	/System/Library/Frameworks/Carbon.framework/Versions/A/Frameworks/Help.framework/Versions/A/Help
0x00000000594ab000 	/System/Library/Frameworks/Carbon.framework/Versions/A/Frameworks/ImageCapture.framework/Versions/A/ImageCapture
0x00000000594ab000 	/System/Library/Frameworks/Carbon.framework/Versions/A/Frameworks/OpenScripting.framework/Versions/A/OpenScripting
0x00000000594ab000 	/System/Library/Frameworks/Carbon.framework/Versions/A/Frameworks/Print.framework/Versions/A/Print
0x00000000594ab000 	/System/Library/Frameworks/Carbon.framework/Versions/A/Frameworks/SecurityHI.framework/Versions/A/SecurityHI
0x0000000114e49000 	/Library/Java/JavaVirtualMachines/jdk1.8.0_91.jdk/Contents/Home/jre/lib/libprism_es2.dylib
0x00000000594ab000 	/System/Library/Frameworks/OpenGL.framework/Versions/A/Resources/GLEngine.bundle/GLEngine
0x00000000594ab000 	/System/Library/Frameworks/OpenGL.framework/Versions/A/Libraries/libGLProgrammability.dylib
0x0000000125eb5000 	/System/Library/Extensions/AppleIntelHD5000GraphicsGLDriver.bundle/Contents/MacOS/AppleIntelHD5000GraphicsGLDriver
0x00000000594ab000 	/System/Library/PrivateFrameworks/GPUSupport.framework/Versions/A/Libraries/libGPUSupportMercury.dylib
0x00000000594ab000 	/System/Library/Extensions/GeForceGLDriver.bundle/Contents/MacOS/GeForceGLDriver
0x00000000594ab000 	/System/Library/Extensions/GeForceGLDriver.bundle/Contents/MacOS/libclh.dylib
0x00000000594ab000 	/System/Library/Frameworks/OpenGL.framework/Versions/A/Resources/GLRendererFloat.bundle/GLRendererFloat
0x00000000594ab000 	/System/Library/Frameworks/OpenCL.framework/Versions/A/Libraries/libcldcpuengine.dylib
0x00000000594ab000 	/usr/lib/libcrypto.0.9.8.dylib
0x00000000594ab000 	/System/Library/PrivateFrameworks/TrustEvaluationAgent.framework/Versions/A/TrustEvaluationAgent
0x0000000115120000 	/Library/Java/JavaVirtualMachines/jdk1.8.0_91.jdk/Contents/Home/jre/lib/libglass.dylib
0x00000000594ab000 	/System/Library/PrivateFrameworks/CoreServicesInternal.framework/Versions/A/CoreServicesInternal
0x00000000594ab000 	/System/Library/CoreServices/RawCamera.bundle/Contents/MacOS/RawCamera
0x00000000594ab000 	/System/Library/Frameworks/Accelerate.framework/Versions/A/Frameworks/vImage.framework/Versions/A/Libraries/libCGInterfaces.dylib
0x00000000594ab000 	/System/Library/PrivateFrameworks/FamilyControls.framework/Versions/A/FamilyControls
0x00000000594ab000 	/System/Library/PrivateFrameworks/CommerceKit.framework/Versions/A/Frameworks/CommerceCore.framework/Versions/A/CommerceCore
0x00000000594ab000 	/System/Library/PrivateFrameworks/SystemAdministration.framework/Versions/A/SystemAdministration
0x00000000594ab000 	/System/Library/PrivateFrameworks/AppContainer.framework/Versions/A/AppContainer
0x00000000594ab000 	/System/Library/PrivateFrameworks/SecCodeWrapper.framework/Versions/A/SecCodeWrapper
0x00000000594ab000 	/System/Library/Frameworks/DirectoryService.framework/Versions/A/DirectoryService
0x00000000594ab000 	/System/Library/PrivateFrameworks/DiskImages.framework/Versions/A/DiskImages
0x00000000594ab000 	/System/Library/PrivateFrameworks/LoginUIKit.framework/Versions/A/Frameworks/LoginUICore.framework/Versions/A/LoginUICore
0x00000000594ab000 	/usr/lib/libCoreStorage.dylib
0x00000000594ab000 	/usr/lib/libcsfde.dylib
0x00000000594ab000 	/usr/lib/libodfde.dylib
0x00000000594ab000 	/System/Library/Frameworks/DiscRecording.framework/Versions/A/DiscRecording
0x00000000594ab000 	/usr/lib/libcurl.4.dylib
0x00000000594ab000 	/System/Library/PrivateFrameworks/MediaKit.framework/Versions/A/MediaKit
0x00000000594ab000 	/System/Library/PrivateFrameworks/ProtectedCloudStorage.framework/Versions/A/ProtectedCloudStorage
0x00000000594ab000 	/System/Library/PrivateFrameworks/EFILogin.framework/Versions/A/EFILogin
0x00000000594ab000 	/usr/lib/libutil.dylib
0x00000000594ab000 	/System/Library/Frameworks/LDAP.framework/Versions/A/LDAP
0x00000000594ab000 	/usr/lib/libsasl2.2.dylib
0x00000000594ab000 	/System/Library/PrivateFrameworks/CoreDaemon.framework/Versions/B/CoreDaemon
0x00000000594ab000 	/System/Library/PrivateFrameworks/AppleSRP.framework/Versions/A/AppleSRP
0x00000000594ab000 	/System/Library/PrivateFrameworks/APFS.framework/Versions/A/APFS
0x000000012a141000 	/Library/Java/JavaVirtualMachines/jdk1.8.0_91.jdk/Contents/Home/jre/lib/libnet.dylib
0x00000000594ab000 	/System/Library/Frameworks/ApplicationServices.framework/Versions/A/Frameworks/ATS.framework/Versions/A/Resources/libTrueTypeScaler.dylib
0x00000000594ab000 	/System/Library/Extensions/GeForceMTLDriver.bundle/Contents/MacOS/GeForceMTLDriver
0x000000012b055000 	/System/Library/Extensions/AppleIntelHD5000GraphicsMTLDriver.bundle/Contents/MacOS/AppleIntelHD5000GraphicsMTLDriver
0x000000012abf5000 	/Library/Java/JavaVirtualMachines/jdk1.8.0_91.jdk/Contents/Home/jre/lib/libjavafx_font.dylib
0x00000000594ab000 	/System/Library/PrivateFrameworks/ViewBridge.framework/Versions/A/ViewBridge
0x00000000594ab000 	/System/Library/PrivateFrameworks/XPCService.framework/Versions/A/XPCService
0x00000000594ab000 	/System/Library/PrivateFrameworks/AppSandbox.framework/Versions/A/AppSandbox
0x00000000594ab000 	/usr/lib/libsandbox.1.dylib
0x00000000594ab000 	/usr/lib/libMatch.1.dylib
0x000000012f35b000 	/Library/Java/JavaVirtualMachines/jdk1.8.0_91.jdk/Contents/Home/jre/lib/libprism_common.dylib

VM Arguments:
jvm_args: -Dfile.encoding=UTF-8 
java_command: /Users/jonathongray/repos/lawn-care-system/LawnCareSystem/dist/run1265384732/LawnCareSystem.jar
java_class_path (initial): /Users/jonathongray/repos/lawn-care-system/LawnCareSystem/dist/run1265384732/LawnCareSystem.jar
Launcher Type: SUN_STANDARD

Environment Variables:
PATH=/usr/bin:/bin:/usr/sbin:/sbin
LD_LIBRARY_PATH=/Library/Java/JavaVirtualMachines/jdk1.8.0_91.jdk/Contents/Home/jre/lib/amd64:/Library/Java/JavaVirtualMachines/jdk1.8.0_91.jdk/Contents/Home/jre/lib/i386:
SHELL=/bin/bash

Signal Handlers:
SIGSEGV: [libjvm.dylib+0x5a97a1], sa_mask[0]=11111111011111110111111111111111, sa_flags=SA_ONSTACK|SA_RESTART|SA_SIGINFO
SIGBUS: [libjvm.dylib+0x5a97a1], sa_mask[0]=11111111011111110111111111111111, sa_flags=SA_RESTART|SA_SIGINFO
SIGFPE: [libjvm.dylib+0x482594], sa_mask[0]=11111111011111110111111111111111, sa_flags=SA_RESTART|SA_SIGINFO
SIGPIPE: [libjvm.dylib+0x482594], sa_mask[0]=11111111011111110111111111111111, sa_flags=SA_RESTART|SA_SIGINFO
SIGXFSZ: [libjvm.dylib+0x482594], sa_mask[0]=11111111011111110111111111111111, sa_flags=SA_RESTART|SA_SIGINFO
SIGILL: [libjvm.dylib+0x482594], sa_mask[0]=11111111011111110111111111111111, sa_flags=SA_RESTART|SA_SIGINFO
SIGUSR1: SIG_DFL, sa_mask[0]=00000000000000000000000000000000, sa_flags=none
SIGUSR2: [libjvm.dylib+0x4820b2], sa_mask[0]=00100000000000000000000000000000, sa_flags=SA_RESTART|SA_SIGINFO
SIGHUP: [libjvm.dylib+0x480689], sa_mask[0]=11111111011111110111111111111111, sa_flags=SA_RESTART|SA_SIGINFO
SIGINT: SIG_IGN, sa_mask[0]=00000000000000000000000000000000, sa_flags=none
SIGTERM: [libjvm.dylib+0x480689], sa_mask[0]=11111111011111110111111111111111, sa_flags=SA_RESTART|SA_SIGINFO
SIGQUIT: [libjvm.dylib+0x480689], sa_mask[0]=11111111011111110111111111111111, sa_flags=SA_RESTART|SA_SIGINFO


---------------  S Y S T E M  ---------------

OS:Bsduname:Darwin 16.1.0 Darwin Kernel Version 16.1.0: Thu Oct 13 21:26:57 PDT 2016; root:xnu-3789.21.3~60/RELEASE_X86_64 x86_64
rlimit: STACK 8192k, CORE 0k, NPROC 709, NOFILE 10240, AS infinity
load average:2.27 2.25 2.13

CPU:total 8 (4 cores per cpu, 2 threads per core) family 6 model 70 stepping 1, cmov, cx8, fxsr, mmx, sse, sse2, sse3, ssse3, sse4.1, sse4.2, popcnt, avx, avx2, aes, clmul, erms, rtm, lzcnt, ht, tsc, tscinvbit, bmi1, bmi2

Memory: 4k page, physical 16777216k(3249932k free)

/proc/meminfo:


vm_info: Java HotSpot(TM) 64-Bit Server VM (25.91-b14) for bsd-amd64 JRE (1.8.0_91-b14), built on Apr  1 2016 01:03:00 by "java_re" with gcc 4.2.1 (Based on Apple Inc. build 5658) (LLVM build 2336.11.00)

time: Mon Apr 10 10:34:14 2017
elapsed time: 342 seconds (0d 0h 5m 42s)

